-------------------------------------------------------------------------------
Test set: com.github.lincolnluiz.SpringJasper.SpringJasperApplicationTests
-------------------------------------------------------------------------------
Tests run: 1, Failures: 0, Errors: 0, Skipped: 0, Time elapsed: 6.633 sec - in com.github.lincolnluiz.SpringJasper.SpringJasperApplicationTests
